haileycsy - Market Basket Analysis
…
mutate() character data types to factor using as.factor()

Convert InvoiceNo to Numeric

Store InvoiceDate as date in new variable, ‘TransDate’

Extract time from InvoiceDate and store in another variable, ‘TransTime’

order_data %>%
  mutate(across(where(is.character), as.factor()))

# A tibble: 406,829 × 8
   InvoiceNo StockCode Description        Quantity InvoiceDate         UnitPrice
   <chr>     <chr>     <chr>                 <dbl> <dttm>                  <dbl>
 1 536365    85123A    WHITE HANGING HEA…        6 2010-12-01 08:26:00      2.55
 2 536365    71053     WHITE METAL LANTE…        6 2010-12-01 08:26:00      3.39
 3 536365    84406B    CREAM CUPID HEART…        8 2010-12-01 08:26:00      2.75
 4 536365    84029G    KNITTED UNION FLA…        6 2010-12-01 08:26:00      3.39
 5 536365    84029E    RED WOOLLY HOTTIE…        6 2010-12-01 08:26:00      3.39
 6 536365    22752     SET 7 BABUSHKA NE…        2 2010-12-01 08:26:00      7.65
 7 536365    21730     GLASS STAR FROSTE…        6 2010-12-01 08:26:00      4.25
 8 536366    22633     HAND WARMER UNION…        6 2010-12-01 08:28:00      1.85
 9 536366    22632     HAND WARMER RED P…        6 2010-12-01 08:28:00      1.85
10 536367    84879     ASSORTED COLOUR B…       32 2010-12-01 08:34:00      1.69
# ℹ 406,819 more rows
# ℹ 2 more variables: CustomerID <dbl>, Country <chr>
…
