…
**valueofgoods_omu** has too many missing values and will unnecessarily skew aggregated values. While some missing values could be intentional non-reporting of value and thus indicate possible IUU, there are too many to be able to filter out based on this criteria alone. This column will be dropped for the analysis, while the relationship between **weightkg**, **volumeteu** and **valueofgoodsusd** will be looked into more closely to check for possible discrepencies. 

**II. Checking for Duplicates:**


::: {.cell}

```{.r .cell-code  code-fold="false"}
# Check for duplicated rows
mc2_links[duplicated(mc2_links),]
```

::: {.cell-output .cell-output-stdout}
```
# A tibble: 155,291 × 9
   source    target hscode year  arrivaldate weightkg volumeteu valueofgoods_omu
   <chr>     <chr>  <chr>  <fct> <chr>          <int>     <dbl>            <dbl>
 1 French C… Mar d… 851629 2028  2028-03-09        20         0               NA
 2 French C… Mar d… 851629 2028  2028-06-02       110         0               NA
 3 French C… -1992  852990 2028  2028-01-02      2830         0               NA
 4 French C… -1992  852990 2028  2028-01-02      2830         0               NA
 5 French C… -1992  852990 2028  2028-01-04      2805         0               NA
 6 French C… -1992  852990 2028  2028-01-11      1895         0               NA
 7 French C… -1992  852990 2028  2028-01-11      2790         0               NA
 8 French C… -1992  852990 2028  2028-01-11      2790         0               NA
 9 French C… -1992  852990 2028  2028-01-18      1895         0               NA
10 French C… -1992  852990 2028  2028-01-18      2790         0               NA
# ℹ 155,281 more rows
# ℹ 1 more variable: valueofgoodsusd <dbl>
```
…
```{.r .cell-code  code-fold="false"}
country_graph_2030 <- tbl_graph(nodes = country_nodes_2030,
                          edges = country_links_2030, 
                          directed = TRUE)
country_graph_2030
```

::: {.cell-output .cell-output-stdout}
```
# A tbl_graph: 137 nodes and 4439 edges
#
# A directed multigraph with 1 component
#
# A tibble: 137 × 1
  country   
  <chr>     
1 -22004    
2 -22005    
3 -22007    
4 Alverossia
5 Alverovia 
6 Andenovia 
# ℹ 131 more rows
#
# A tibble: 4,439 × 5
   from    to yearmonth  weight weightkg
  <int> <int> <date>      <int>    <dbl>
1     1    75 2030-01-01      6   580805
2     1    75 2030-02-01      9  1732215
3     1    75 2030-03-01      2   252950
# ℹ 4,436 more rows
```
…
# Create Graph Object
country_graph <- tbl_graph(nodes = country_nodes,
                          edges = country_links_top, 
                          directed = TRUE)
country_graph
```

::: {.cell-output .cell-output-stdout}
```
# A tbl_graph: 24 nodes and 1005 edges
#
# A directed acyclic multigraph with 2 components
#
# A tibble: 24 × 1
  country   
  <chr>     
1 Marebak   
2 Rio Isla  
3 Kondanovia
4 Alverossia
5 Merigrad  
6 Utoporiana
# ℹ 18 more rows
#
# A tibble: 1,005 × 6
   from    to year  yearmonth  weight weightkg
  <int> <int> <fct> <date>      <int>    <dbl>
1     1    17 2028  2028-01-01    435  7607660
2     1    17 2028  2028-01-01    199  3353530
3     2    18 2028  2028-01-01    307 24667540
# ℹ 1,002 more rows
```
…
```{.r .cell-code  code-fold="false"}
top_30_graph <- tbl_graph(nodes = top_30_nodes,
                          edges = top_30, 
                          directed = TRUE)
top_30_graph
```

::: {.cell-output .cell-output-stdout}
```
# A tbl_graph: 85 nodes and 211 edges
#
# A directed acyclic multigraph with 14 components
#
# A tibble: 85 × 4
  id                                     uuid shpcountry rcvcountry  
  <chr>                                 <int> <chr>      <chr>       
1 Coastal Cruisers Pic Shipping         24448 Marebak    Oceanus     
2 Marine Masterminds Dry dock           28774 Marebak    Coralmarica 
3 Mar y Luna Sagl                       28702 Marebak    Coralmarica 
4 Ianira Starfish Sagl Import           26454 Rio Isla   Sol y Oceana
5 Orange River   GmbH & Co. KG Shipping 30325 Marebak    Oceanus     
6 Olas del Sur Sea                      30295 Rio Isla   Coralmarica 
# ℹ 79 more rows
#
# A tibble: 211 × 4
   from    to year  weight
  <int> <int> <fct>  <int>
1     1    46 2028    5816
2     2    47 2028    5509
3     3    30 2028    4822
# ℹ 208 more rows
```
…
