haileycsy - Take-home Exercise 2
…
          source           target           hscode      arrivaldate 
               0                0                0                0 
            year         weightkg        volumeteu valueofgoods_omu 
               0                0           520933          5464097 
 valueofgoodsusd 
         3017844 

valueofgoods_omu column is mostly incomplete. This column will be dropped for the analysis.

code block

# Check for duplicated rows
mc2_edges[duplicated(mc2_edges),]

# A tibble: 355,606 × 9
   source    target hscode arrivaldate year  weightkg volumeteu valueofgoods_omu
   <chr>     <chr>  <chr>  <date>      <fct>    <int>     <dbl>            <dbl>
 1 French C… Mar d… 851629 2028-03-01  2028        20         0               NA
 2 French C… Mar d… 851629 2028-05-01  2028       120         0               NA
 3 French C… Mar d… 851629 2028-06-01  2028       110         0               NA
 4 French C… -1992  852990 2028-01-01  2028      2830         0               NA
 5 French C… -1992  852990 2028-01-01  2028      2830         0               NA
 6 French C… -1992  852990 2028-01-01  2028      2805         0               NA
 7 French C… -1992  852990 2028-01-01  2028       655         0               NA
 8 French C… -1992  852990 2028-01-01  2028      1895         0               NA
 9 French C… -1992  852990 2028-01-01  2028      1895         0               NA
10 French C… -1992  852990 2028-01-01  2028      2790         0               NA
# ℹ 355,596 more rows
# ℹ 1 more variable: valueofgoodsusd <dbl>
…
code block

# Combine edges and nodes to a graph dataframe
mc2_graph <- tbl_graph(
    nodes = mc2_nodes_new,
    edges = mc2_edges_agg, 
    directed = TRUE)

mc2_graph

# A tbl_graph: 43908 nodes and 288495 edges
#
# A directed multigraph with 21423 components
#
# A tibble: 43,908 × 3
  id                                rcvcountry shpcountry
  <chr>                             <chr>      <chr>     
1 AquaDelight Inc and Son's         Oceanus    Polarinda 
2 Yu gan  Sea spray GmbH Industrial Oceanus    Oceanus   
3 Olas del Mar Worldwide            Oceanus    Oceanus   
4 French Crab S.p.A. Worldwide      Utoporiana Kondanovia
5 Panope Limited Liability Company  Oceanus    Vesperanda
6 hǎi dǎn Corporation Wharf         Oceanus    Marebak   
# ℹ 43,902 more rows
#
# A tibble: 288,495 × 4
   from    to year  weight
  <int> <int> <fct>  <int>
1  2162 20466 2029       2
2  2162 20466 2030       3
3  2162   586 2030       3
# ℹ 288,492 more rows
…
