haileycsy - Take-home Exercise 3
…
# Check for columns with missing values
colSums(is.na(mc3_nodes))

              id          country             type      revenue_omu 
               0                0                0            21515 
product_services 
               0 

There are 21,515 missing values from the revenue_omu column.

II. Checking for Duplicates

mc3_nodes[duplicated(mc3_nodes),]

# A tibble: 2,595 × 5
   id                              country type    revenue_omu product_services
   <chr>                           <chr>   <chr>         <dbl> <chr>           
 1 Smith Ltd                       ZH      Company          NA Unknown         
 2 Williams LLC                    ZH      Company          NA Unknown         
 3 Garcia Inc                      ZH      Company          NA Unknown         
 4 Walker and Sons                 ZH      Company          NA Unknown         
 5 Walker and Sons                 ZH      Company          NA Unknown         
 6 Smith LLC                       ZH      Company          NA Unknown         
 7 Smith Ltd                       ZH      Company          NA Unknown         
 8 Romero Inc                      ZH      Company          NA Unknown         
 9 Niger River   Marine life       Oceanus Company          NA Unknown         
10 Coastal Crusaders AS Industrial Oceanus Company          NA Unknown         
# ℹ 2,585 more rows
…
mc3_links_new <- mc3_links %>%
  # Extract all text within " "
  mutate(source = str_extract_all(source, '"(.*?)"')) %>%
  # Split into separate rows
  unnest(source) %>%
  # Split phrases by comma ignoring leading spaces
  separate_rows(source, sep = ",\\s*") %>%
  mutate(source = str_remove_all(source, '"'))

III. Checking for Duplicates:

mc3_links_new[duplicated(mc3_links_new),]

# A tibble: 2,238 × 3
   source                      target           type            
   <chr>                       <chr>            <chr>           
 1 1 Ltd. Liability Co         Yesenia Oliver   Company Contacts
 2 1 Swordfish Ltd Solutions   Daniel Reese     Company Contacts
 3 6 GmbH & Co. KG             Monique Cummings Company Contacts
 4 6 GmbH & Co. KG             Monique Cummings Company Contacts
 5 Mar de la Luz BV            Monique Cummings Company Contacts
 6 7 Ltd. Liability Co Express Cassidy Sherman  Beneficial Owner
 7 7 Ltd. Liability Co Express Dawn West        Beneficial Owner
 8 7 Ltd. Liability Co Express Hannah Franco    Company Contacts
 9 7 Ltd. Liability Co Express Michael Morrison Beneficial Owner
10 7 Ltd. Liability Co Express Nicole Carrillo  Beneficial Owner
# ℹ 2,228 more rows
…
