haileycsy - Take-home Exercise 1
…
Rows: 1,513,636
Columns: 4
$ participantId <dbl> 0, 0, 0, 1, 1, 1, 2, 2, 2, 3, 3, 3, 4, 4, 4, 5, 5, 5, 6,…
$ timestamp     <dttm> 2022-03-01, 2022-03-01, 2022-03-01, 2022-03-01, 2022-03…
$ category      <chr> "Wage", "Shelter", "Education", "Wage", "Shelter", "Educ…
$ amount        <dbl> 2472.50756, -554.98862, -38.00538, 2046.56221, -554.9886…

The dataset captures specific financial transactions by participants, with a single transaction recorded in each row. Participants may have multiple transactions over time.

Checking for duplicates:

financial_data[duplicated(financial_data),]

# A tibble: 1,113 × 4
   participantId timestamp           category   amount
           <dbl> <dttm>              <chr>       <dbl>
 1             0 2022-03-01 00:00:00 Shelter    -555. 
 2             0 2022-03-01 00:00:00 Education   -38.0
 3             1 2022-03-01 00:00:00 Shelter    -555. 
 4             1 2022-03-01 00:00:00 Education   -38.0
 5             2 2022-03-01 00:00:00 Shelter    -557. 
 6             2 2022-03-01 00:00:00 Education   -12.8
 7             3 2022-03-01 00:00:00 Shelter    -555. 
 8             3 2022-03-01 00:00:00 Education   -38.0
 9             4 2022-03-01 00:00:00 Shelter   -1556. 
10             4 2022-03-01 00:00:00 Education   -12.8
# ℹ 1,103 more rows
…
